<?xml version="1.0" encoding="UTF-8" standalone="no"?>
<svg
   xmlns:dc="http://purl.org/dc/elements/1.1/"
   xmlns:cc="http://creativecommons.org/ns#"
   xmlns:rdf="http://www.w3.org/1999/02/22-rdf-syntax-ns#"
   xmlns:svg="http://www.w3.org/2000/svg"
   xmlns="http://www.w3.org/2000/svg"
   xmlns:sodipodi="http://sodipodi.sourceforge.net/DTD/sodipodi-0.dtd"
   xmlns:inkscape="http://www.inkscape.org/namespaces/inkscape"
   version="1.1"
   viewBox="0 0 835.8399 354.48029"
   stroke-miterlimit="10"
   id="svg123"
   sodipodi:docname="mm.svg"
   width="835.8399"
   height="354.48029"
   style="fill:none;stroke:none;stroke-linecap:square;stroke-miterlimit:10"
   inkscape:version="0.92.3 (2405546, 2018-03-11)">
  <metadata
     id="metadata129">
    <rdf:RDF>
      <cc:Work
         rdf:about="">
        <dc:format>image/svg+xml</dc:format>
        <dc:type
           rdf:resource="http://purl.org/dc/dcmitype/StillImage" />
        <dc:title></dc:title>
      </cc:Work>
    </rdf:RDF>
  </metadata>
  <defs
     id="defs127" />
  <sodipodi:namedview
     pagecolor="#ffffff"
     bordercolor="#666666"
     borderopacity="1"
     objecttolerance="10"
     gridtolerance="10"
     guidetolerance="10"
     inkscape:pageopacity="0"
     inkscape:pageshadow="2"
     inkscape:window-width="1303"
     inkscape:window-height="595"
     id="namedview125"
     showgrid="false"
     fit-margin-top="0"
     fit-margin-left="0"
     fit-margin-right="0"
     fit-margin-bottom="0"
     inkscape:zoom="0.32777778"
     inkscape:cx="417.91995"
     inkscape:cy="137.69159"
     inkscape:window-x="0"
     inkscape:window-y="0"
     inkscape:window-maximized="0"
     inkscape:current-layer="svg123" />
  <clipPath
     id="p.0">
    <path
       d="M 0,0 H 960 V 720 H 0 Z"
       id="path2"
       inkscape:connector-curvature="0"
       style="clip-rule:nonzero" />
  </clipPath>
  <path
     style="fill:#000000;fill-opacity:0;fill-rule:evenodd"
     inkscape:connector-curvature="0"
     id="path5"
     d="m -62.08005,-143.21129 h 960 v 720 h -960 z" />
  <path
     style="fill:#6d9eeb;fill-rule:evenodd"
     inkscape:connector-curvature="0"
     id="path7"
     d="M 82.93307,0.5 H 782.61813 V 353.9803 H 82.93307 Z" />
  <path
     style="fill-rule:evenodd;stroke:#666666;stroke-width:1;stroke-linecap:butt;stroke-linejoin:round"
     inkscape:connector-curvature="0"
     id="path9"
     d="M 82.93307,0.5 H 782.61813 V 353.9803 H 82.93307 Z" />
  <path
     style="fill:#cc4125;fill-rule:evenodd"
     inkscape:connector-curvature="0"
     id="path11"
     d="m 160.27559,13.03149 h 587.937 v 328.7874 h -587.937 z" />
  <path
     style="fill-rule:evenodd;stroke:#000000;stroke-width:1;stroke-linecap:butt;stroke-linejoin:round"
     inkscape:connector-curvature="0"
     id="path13"
     d="m 160.27559,13.03149 h 587.937 v 328.7874 h -587.937 z" />
  <path
     style="fill:#000000;fill-opacity:0;fill-rule:evenodd"
     inkscape:connector-curvature="0"
     id="path15"
     d="M 9.97375,107.40156 H 153.78477" />
  <path
     style="fill-rule:evenodd;stroke:#000000;stroke-width:1;stroke-linecap:butt;stroke-linejoin:round"
     inkscape:connector-curvature="0"
     id="path17"
     d="M 9.97375,107.40156 H 147.78477" />
  <path
     style="fill:#000000;fill-rule:evenodd;stroke:#000000;stroke-width:1;stroke-linecap:butt"
     inkscape:connector-curvature="0"
     id="path19"
     d="m 147.78477,109.0533 4.5381,-1.65173 -4.5381,-1.65172 z" />
  <path
     style="fill:#000000;fill-opacity:0;fill-rule:evenodd"
     inkscape:connector-curvature="0"
     id="path21"
     d="m 119.00393,107.84907 34.77165,103.55905" />
  <path
     style="fill-rule:evenodd;stroke:#000000;stroke-width:1;stroke-linecap:butt;stroke-linejoin:round"
     inkscape:connector-curvature="0"
     id="path23"
     d="m 119.00393,107.84907 32.86185,97.87109" />
  <path
     style="fill:#000000;fill-rule:evenodd;stroke:#000000;stroke-width:1;stroke-linecap:butt"
     inkscape:connector-curvature="0"
     id="path25"
     d="m 150.29995,206.24595 3.01031,3.77631 0.12133,-4.82782 z" />
  <path
     style="fill:#000000;fill-opacity:0;fill-rule:evenodd"
     inkscape:connector-curvature="0"
     id="path27"
     d="M 0,52.72703 H 73.22835 V 89.64041 H 0 Z" />
  <path
     style="fill:#6aa84f;fill-rule:nonzero"
     inkscape:connector-curvature="0"
     id="path29"
     d="M 9.000005,61.72703 H 62.69611 v 38.39999 H 9.000005 Z" />
  <path
     style="fill:#000000;fill-opacity:0;fill-rule:nonzero"
     inkscape:connector-curvature="0"
     id="path31"
     d="M 9.000005,65.31097 H 62.69611 v 35.45607 H 9.000005 Z" />
  <path
     style="fill:#000000;fill-rule:nonzero"
     inkscape:connector-curvature="0"
     id="path33"
     d="m 13.45313,84.83766 5.4375,4.25 -1.03125,2.04687 -7.796875,-6.29687 0.03125,-0.17188 10.421875,-6.20312 0.171875,2.01562 -7.203125,4.1875 z m 19.511398,7.60937 2.078125,-9.73437 q 0.140625,-0.60938 0.140625,-1.17188 0,-1.3125 -0.71875,-1.85937 -0.703125,-0.54688 -1.8125,-0.54688 -1.640625,0 -3.15625,1.01563 -1.515625,1 -2.484375,2.85937 l -2.015625,9.4375 h -2.234375 l 3.140625,-14.71875 h 1.75 l -0.34375,2.75 h 0.125 q 0.703125,-1.34375 2.234375,-2.28125 1.546875,-0.95312 3.65625,-0.95312 1.921875,0 3.015625,0.85937 1.109375,0.84375 1.140625,2.375 0.921877,-1.28125 2.437497,-2.25 1.53125,-0.98437 3.70313,-0.98437 0.82812,0 1.57812,0.20312 0.76563,0.1875 1.3125,0.625 0.5625,0.42188 0.89063,1.10938 0.34375,0.6875 0.34375,1.6875 0,0.70312 -0.1875,1.5625 l -2.14063,10.01562 h -2.23437 l 2.07812,-9.73437 q 0.125,-0.60938 0.125,-1.17188 0,-1.3125 -0.70312,-1.85937 -0.70313,-0.54688 -1.82813,-0.54688 -1.625,0 -3.15625,1.01563 -1.51562,1 -2.468747,2.85937 l -2.015625,9.4375 z m 24.862302,-7.78125 -5.40625,-4.1875 1.03125,-2.01562 7.76563,6.20312 -0.0312,0.17188 -10.48438,6.29687 -0.14062,-2.04687 7.23437,-4.25 z" />
  <path
     style="fill:#000000;fill-opacity:0;fill-rule:nonzero"
     inkscape:connector-curvature="0"
     id="path35"
     d="m 62.69611,65.31097 v 0 35.45607 0 z" />
  <path
     style="fill:#6aa84f;fill-rule:evenodd"
     inkscape:connector-curvature="0"
     id="path37"
     d="m 377.47245,140.99211 h 297.3228 v 140.81891 h -297.3228 z" />
  <path
     style="fill-rule:evenodd;stroke:#000000;stroke-width:1;stroke-linecap:butt;stroke-linejoin:round"
     inkscape:connector-curvature="0"
     id="path39"
     d="m 377.47245,140.99211 h 297.3228 v 140.81891 h -297.3228 z" />
  <path
     style="fill:#000000;fill-opacity:0;fill-rule:evenodd"
     inkscape:connector-curvature="0"
     id="path41"
     d="m 160.27559,211.49605 217.19685,-0.0945" />
  <path
     style="fill-rule:evenodd;stroke:#000000;stroke-width:1;stroke-linecap:butt;stroke-linejoin:round"
     inkscape:connector-curvature="0"
     id="path43"
     d="m 160.27559,211.49605 211.19685,-0.0919" />
  <path
     style="fill:#000000;fill-rule:evenodd;stroke:#000000;stroke-width:1;stroke-linecap:butt"
     inkscape:connector-curvature="0"
     id="path45"
     d="m 371.47317,213.05591 4.53735,-1.65372 -4.53878,-1.64975 z" />
  <path
     style="fill:#000000;fill-opacity:0;fill-rule:evenodd"
     inkscape:connector-curvature="0"
     id="path47"
     d="m 395.02362,150.36481 h 44.18899 v 36.91339 h -44.18899 z" />
  <path
     style="fill:#6aa84f;fill-rule:nonzero"
     inkscape:connector-curvature="0"
     id="path49"
     d="m 404.02362,159.36481 h 27.00806 v 38.39999 h -27.00806 z" />
  <path
     style="fill:#000000;fill-opacity:0;fill-rule:nonzero"
     inkscape:connector-curvature="0"
     id="path51"
     d="m 404.02362,162.94877 h 27.00806 v 35.45605 h -27.00806 z" />
  <path
     style="fill:#000000;fill-rule:nonzero"
     inkscape:connector-curvature="0"
     id="path53"
     d="m 416.41425,187.06921 11,-18.10937 h 3.07812 l -4.48437,21.125 h -2.40625 l 3.39062,-15.96875 -9.84375,15.96875 H 414.258 l -3.09375,-16 -3.39063,16 h -2.40625 l 4.48438,-21.125 h 3.23437 z" />
  <path
     style="fill:#000000;fill-opacity:0;fill-rule:nonzero"
     inkscape:connector-curvature="0"
     id="path55"
     d="m 431.03167,162.94877 v 0 35.45605 0 z" />
  <path
     style="fill:#000000;fill-opacity:0;fill-rule:evenodd"
     inkscape:connector-curvature="0"
     id="path57"
     d="M 676.04205,168.48555 H 812.89239" />
  <path
     style="fill-rule:evenodd;stroke:#000000;stroke-width:1;stroke-linecap:butt;stroke-linejoin:round"
     inkscape:connector-curvature="0"
     id="path59"
     d="M 676.04205,168.48555 H 806.89239" />
  <path
     style="fill:#000000;fill-rule:evenodd;stroke:#000000;stroke-width:1;stroke-linecap:butt"
     inkscape:connector-curvature="0"
     id="path61"
     d="m 806.89235,170.13728 4.53815,-1.65173 -4.53815,-1.65174 z" />
  <path
     style="fill:#000000;fill-opacity:0;fill-rule:evenodd"
     inkscape:connector-curvature="0"
     id="path63"
     d="M 676.04205,220.38581 H 812.89239" />
  <path
     style="fill-rule:evenodd;stroke:#000000;stroke-width:1;stroke-linecap:butt;stroke-linejoin:round"
     inkscape:connector-curvature="0"
     id="path65"
     d="M 676.04205,220.38581 H 806.89239" />
  <path
     style="fill:#000000;fill-rule:evenodd;stroke:#000000;stroke-width:1;stroke-linecap:butt"
     inkscape:connector-curvature="0"
     id="path67"
     d="m 806.89235,222.03755 4.53815,-1.65173 -4.53815,-1.65174 z" />
  <path
     style="fill:#000000;fill-opacity:0;fill-rule:evenodd"
     inkscape:connector-curvature="0"
     id="path69"
     d="m 814.13915,150.02885 h 21.70074 v 36.91339 h -21.70074 z" />
  <path
     style="fill:#000000;fill-rule:nonzero"
     inkscape:connector-curvature="0"
     id="path71"
     d="m 832.7485,165.94887 h -3.9375 v 11 h -1.40625 v -11 h -3.9375 v -1.3125 h 9.28125 z" />
  <path
     style="fill:#000000;fill-opacity:0;fill-rule:evenodd"
     inkscape:connector-curvature="0"
     id="path73"
     d="m 814.13915,201.92911 h 21.70074 v 36.91339 h -21.70074 z" />
  <path
     style="fill:#000000;fill-rule:nonzero"
     inkscape:connector-curvature="0"
     id="path75"
     d="m 830.27975,222.97413 h -3.89063 v 5.875 h -1.40625 v -12.3125 h 6.65625 v 1.3125 h -5.25 v 3.8125 h 3.89063 z" />
  <path
     style="fill:#000000;fill-opacity:0;fill-rule:evenodd"
     inkscape:connector-curvature="0"
     id="path77"
     d="m 179.53134,39.38975 h 85.35434 v 36.91339 h -85.35434 z" />
  <path
     style="fill:#cc4125;fill-rule:nonzero"
     inkscape:connector-curvature="0"
     id="path79"
     d="m 188.53134,48.38977 h 41.70319 v 38.39999 h -41.70319 z" />
  <path
     style="fill:#000000;fill-opacity:0;fill-rule:nonzero"
     inkscape:connector-curvature="0"
     id="path81"
     d="M 188.53134,51.97371 H 215.5394 V 87.42978 H 188.53134 Z" />
  <path
     style="fill:#000000;fill-rule:nonzero"
     inkscape:connector-curvature="0"
     id="path83"
     d="m 200.92195,76.09413 11,-18.10938 h 3.07812 l -4.48437,21.125 h -2.40625 l 3.39062,-15.96875 -9.84375,15.96875 h -2.89062 l -3.09375,-16 -3.39063,16 h -2.40625 l 4.48438,-21.125 h 3.23437 z" />
  <path
     style="fill:#010000;fill-opacity:0;fill-rule:nonzero"
     inkscape:connector-curvature="0"
     id="path85"
     d="m 215.5394,73.02344 h 14.69513 V 96.65509 H 215.5394 Z" />
  <path
     style="fill:#000000;fill-rule:nonzero"
     inkscape:connector-curvature="0"
     id="path87"
     d="m 219.0394,85.65663 q -0.1875,0.875 -0.1875,1.53125 0,1.46875 0.79687,2.125 0.8125,0.64062 2.29688,0.64062 1.78125,0 3.01562,-1 1.25,-1 1.73438,-3.29687 l 1.82812,-8.625 h 1.5 l -1.98437,9.34375 q -0.23438,1.04687 -0.75,1.95312 -0.51563,0.90625 -1.3125,1.57813 -0.79688,0.67187 -1.89063,1.0625 -1.07812,0.375 -2.45312,0.375 -1.23438,0 -2.09375,-0.26563 -0.84375,-0.26562 -1.39063,-0.73437 -0.54687,-0.46875 -0.79687,-1.10938 -0.23438,-0.65625 -0.23438,-1.4375 0,-0.64062 0.17188,-1.42187 l 1.98437,-9.34375 h 1.59375 z" />
  <path
     style="fill:#010000;fill-opacity:0;fill-rule:nonzero"
     inkscape:connector-curvature="0"
     id="path89"
     d="m 230.23453,73.02344 v 0 23.63165 0 z" />
  <path
     style="fill:#f1c232;fill-rule:evenodd"
     inkscape:connector-curvature="0"
     id="path91"
     d="m 714.25461,324.61418 4.29919,-4.6839 v 2.1496 0 c 6.50275,-1.18274 11.43305,-4.92395 12.62476,-9.5799 v 0 c 1.59741,6.24103 -3.9082,12.2937 -12.62476,13.87912 v 2.1496 z" />
  <path
     style="fill:#c09b27;fill-rule:evenodd"
     inkscape:connector-curvature="0"
     id="path93"
     d="m 731.45145,314.64961 v 0 c 0,-6.69049 -7.69928,-12.1142 -17.19684,-12.1142 v -4.29919 0 c 9.49756,0 17.19684,5.4237 17.19684,12.11416 z" />
  <path
     style="fill:#000000;fill-opacity:0;fill-rule:evenodd"
     inkscape:connector-curvature="0"
     id="path95"
     d="m 731.45145,314.64961 v 0 c 0,-6.69049 -7.69928,-12.1142 -17.19684,-12.1142 v -4.29919 0 c 9.49756,0 17.19684,5.4237 17.19684,12.11416 v 4.29923 0 c 0,5.52405 -5.30493,10.34848 -12.89764,11.72949 v 2.1496 l -4.2992,-3.91452 4.2992,-4.6839 v 2.1496 0 c 6.50274,-1.18274 11.43304,-4.92395 12.62475,-9.5799" />
  <path
     style="fill-rule:evenodd;stroke:#000000;stroke-width:1;stroke-linecap:butt;stroke-linejoin:round"
     inkscape:connector-curvature="0"
     id="path97"
     d="m 731.45145,314.64961 v 0 c 0,-6.69049 -7.69928,-12.1142 -17.19684,-12.1142 v -4.29919 0 c 9.49756,0 17.19684,5.4237 17.19684,12.11416 v 4.29923 0 c 0,5.52405 -5.30493,10.34848 -12.89764,11.72949 v 2.1496 l -4.2992,-3.91452 4.2992,-4.6839 v 2.1496 0 c 6.50274,-1.18274 11.43304,-4.92395 12.62475,-9.5799" />
  <path
     style="fill:#f1c232;fill-rule:evenodd"
     inkscape:connector-curvature="0"
     id="path99"
     d="m 705.57215,324.61418 -4.29919,-4.6839 v 2.1496 0 c -6.50275,-1.18274 -11.43305,-4.92395 -12.62476,-9.5799 v 0 c -1.59741,6.24103 3.9082,12.2937 12.62476,13.87912 v 2.1496 z" />
  <path
     style="fill:#c09b27;fill-rule:evenodd"
     inkscape:connector-curvature="0"
     id="path101"
     d="m 688.37535,314.64961 v 0 c 0,-6.69049 7.69928,-12.1142 17.19684,-12.1142 v -4.29919 0 c -9.49756,0 -17.19684,5.4237 -17.19684,12.11416 z" />
  <path
     style="fill:#000000;fill-opacity:0;fill-rule:evenodd"
     inkscape:connector-curvature="0"
     id="path103"
     d="m 688.37535,314.64961 v 0 c 0,-6.69049 7.69928,-12.1142 17.19684,-12.1142 v -4.29919 0 c -9.49756,0 -17.19684,5.4237 -17.19684,12.11416 v 4.29923 0 c 0,5.52405 5.30493,10.34848 12.89764,11.72949 v 2.1496 l 4.2992,-3.91452 -4.2992,-4.6839 v 2.1496 0 c -6.50274,-1.18274 -11.43304,-4.92395 -12.62475,-9.5799" />
  <path
     style="fill-rule:evenodd;stroke:#000000;stroke-width:1;stroke-linecap:butt;stroke-linejoin:round"
     inkscape:connector-curvature="0"
     id="path105"
     d="m 688.37535,314.64961 v 0 c 0,-6.69049 7.69928,-12.1142 17.19684,-12.1142 v -4.29919 0 c -9.49756,0 -17.19684,5.4237 -17.19684,12.11416 v 4.29923 0 c 0,5.52405 5.30493,10.34848 12.89764,11.72949 v 2.1496 l 4.2992,-3.91452 -4.2992,-4.6839 v 2.1496 0 c -6.50274,-1.18274 -11.43304,-4.92395 -12.62475,-9.5799" />
  <path
     style="fill:#000000;fill-opacity:0;fill-rule:evenodd"
     inkscape:connector-curvature="0"
     id="path107"
     d="m 82.93307,13.03281 h 99.71654 V 70.79659 H 82.93307 Z" />
  <path
     style="fill:#6d9eeb;fill-rule:nonzero"
     inkscape:connector-curvature="0"
     id="path109"
     d="m 91.93307,22.03281 h 63.60727 V 60.4328 H 91.93307 Z" />
  <path
     style="fill:#000000;fill-opacity:0;fill-rule:nonzero"
     inkscape:connector-curvature="0"
     id="path111"
     d="m 91.93307,25.61674 h 27.00806 V 61.07281 H 91.93307 Z" />
  <path
     style="fill:#000000;fill-rule:nonzero"
     inkscape:connector-curvature="0"
     id="path113"
     d="m 104.3237,49.73718 11,-18.10938 h 3.07812 l -4.48437,21.125 h -2.40625 l 3.39062,-15.96875 -9.84375,15.96875 h -2.89062 l -3.09375,-16 -3.39063,16 h -2.40625 l 4.48438,-21.125 h 3.23437 z" />
  <path
     style="fill:#010000;fill-opacity:0;fill-rule:nonzero"
     inkscape:connector-curvature="0"
     id="path115"
     d="m 118.94113,46.66649 h 36.59921 v 23.63165 h -36.59921 z" />
  <path
     style="fill:#000000;fill-rule:nonzero"
     inkscape:connector-curvature="0"
     id="path117"
     d="m 126.14425,64.75281 1.39062,-6.48438 q 0.0937,-0.40625 0.0937,-0.78125 0,-0.875 -0.48437,-1.23437 -0.46875,-0.375 -1.20313,-0.375 -1.09375,0 -2.10937,0.67187 -1.01563,0.67188 -1.65625,1.90625 l -1.34375,6.29688 h -1.48438 l 2.09375,-9.8125 h 1.17188 l -0.23438,1.82812 h 0.0781 q 0.46875,-0.89062 1.48437,-1.51562 1.03125,-0.625 2.4375,-0.625 1.28125,0 2.01563,0.5625 0.73437,0.5625 0.76562,1.57812 0.60938,-0.84375 1.625,-1.48437 1.01563,-0.65625 2.46875,-0.65625 0.54688,0 1.04688,0.125 0.51562,0.125 0.875,0.42187 0.375,0.28125 0.59375,0.75 0.23437,0.45313 0.23437,1.10938 0,0.46875 -0.125,1.04687 l -1.4375,6.67188 h -1.48437 l 1.39062,-6.48438 q 0.0781,-0.40625 0.0781,-0.78125 0,-0.875 -0.46875,-1.23437 -0.46875,-0.375 -1.21875,-0.375 -1.07813,0 -2.09375,0.67187 -1.01563,0.67188 -1.65625,1.90625 l -1.34375,6.29688 z m 18.29961,0 1.39062,-6.48438 q 0.0937,-0.40625 0.0937,-0.78125 0,-0.875 -0.48437,-1.23437 -0.46875,-0.375 -1.20313,-0.375 -1.09375,0 -2.10937,0.67187 -1.01563,0.67188 -1.65625,1.90625 l -1.34375,6.29688 h -1.48438 l 2.09375,-9.8125 h 1.17188 l -0.23438,1.82812 h 0.0781 q 0.46875,-0.89062 1.48437,-1.51562 1.03125,-0.625 2.4375,-0.625 1.28125,0 2.01563,0.5625 0.73437,0.5625 0.76562,1.57812 0.60938,-0.84375 1.625,-1.48437 1.01563,-0.65625 2.46875,-0.65625 0.54688,0 1.04688,0.125 0.51562,0.125 0.875,0.42187 0.375,0.28125 0.59375,0.75 0.23437,0.45313 0.23437,1.10938 0,0.46875 -0.125,1.04687 l -1.4375,6.67188 h -1.48437 l 1.39062,-6.48438 q 0.0781,-0.40625 0.0781,-0.78125 0,-0.875 -0.46875,-1.23437 -0.46875,-0.375 -1.21875,-0.375 -1.07813,0 -2.09375,0.67187 -1.01563,0.67188 -1.65625,1.90625 l -1.34375,6.29688 z" />
  <path
     style="fill:#010000;fill-opacity:0;fill-rule:nonzero"
     inkscape:connector-curvature="0"
     id="path119"
     d="m 155.54034,46.66649 v 0 23.63165 0 z" />
</svg>
